{
  "context-menu": {
    "atom-text-editor": [
      {
        "label": "Open devdocsio",
        "command": "devdocsio"
      }
    ]
  },
  "menu": [
    {
      "label": "Packages",
      "submenu": [
        {
          "label": "Devdoc.io - Pane",
          "submenu": [
            {
              "label": "Open",
              "command": "devdocsio:search"
            },
            {
              "label": "Close",
              "command": "devdocsio:close"
            }
          ]
        }
      ]
    }
  ]
}
